17_ed_variables
…
In the pers table we are interested in the noofschooldegrees variable. Surprisingly, this is one of the most complete variables, with only 0.07% missing.

The variables in the ed table mostly have a high percentage missing. The variable with the lowest missing percentage (besides id and degree position) is the institution variable. The institution, institutioncity, and institutionstate are all character variables.

In our original analysis, the variable used to calculate degree_highest was the degreetype variable, which has 41.37% missing. This is also a character variable.

The completiondateraw variable is potentially very helpful to our analysis, though it has a 56.65% missing.

The variables that interest me most are the ipeds_unit_id variable, which is a unique identifier for schools (57.76% missing). The majorcipcode is also interesting (68.49%). These variables are likely imputed based off the institution and major variables, so we don't know the exact methods used to determine them. Still, they are potentially useful for our analysis. These codes are produced by the NCES.

ed %>% group_by(ipeds_unit_id) %>% summarise(n = n()) %>% arrange(-n)

## `summarise()` ungrouping output (override with `.groups` argument)

## # A tibble: 7,389 x 2
##    ipeds_unit_id        n
##            <int>    <int>
##  1            NA 20909667
##  2        380465   356966
##  3        110671   181266
##  4        111188   180222
##  5        202541    93451
##  6        486345    93194
##  7        240444    91534
##  8        477011    80599
##  9        199157    76294
## 10        186371    69229
## #  with 7,379 more rows
…
##   n
## 1 1

We would have to find an ipeds crosswalk to make the best use of this variable. The most frequent institutions are University of Phoenix-Utah, University of California-Riverside, California State University Maritime Academy, (202541 is not found), HVAC Technical Institute, University of Wisconsin-Madison, (477011, 199157, 186371 not found).

Doing a "like" string match finds about 600 more William and Mary graduates than using IPEDS.

University of Virginia has only one match for its IPEDS code!

ed %>% group_by(majorcipcode) %>% summarise(n = n()) %>% arrange(-n)

## `summarise()` ungrouping output (override with `.groups` argument)

## # A tibble: 121,198 x 2
##    majorcipcode        n
##    <chr>           <int>
##  1 <NA>         24794283
##  2 52.0201       1465826
##  3 11.0701        700272
##  4 42.0101        472310
##  5 52.0301        402459
##  6 24.0102        358320
##  7 52.1401        310493
##  8 52.0801        252597
##  9 51.3808        233130
## 10 14.1901        223420
## #  with 121,188 more rows
…
