EMS data EDA
…
missing <- miss_var_summary(ems_full) %>%
  mutate_if(is.numeric, round, digits = 2)
missing

## # A tibble: 84 x 3
##    variable                                                      n_miss pct_miss
##    <chr>                                                          <dbl>    <dbl>
##  1 cardiac_arrest_rosc_date_time                                 121145     99.7
##  2 cardiac_arrest_who_initiated_cpr_with_code                    121030     99.6
##  3 cardiac_arrest_initial_cpr_date_time                          120487     99.2
##  4 destination_cardiac_arrest_team_activation_date_time          120228     99.0
##  5 patient_head_assessment_exam_details                          118909     97.9
##  6 cardiac_arrest_witnessed_by_list                              116782     96.1
##  7 patient_suspected_influenza_type_illness                      116753     96.1
##  8 patient_skin_assessment_exam_details                          116674     96.0
##  9 cardiac_arrest_indications_resuscitation_attempted_by_ems_wi 116621     96  
## 10 cardiac_arrest_date_time                                      116288     95.7
## #  with 74 more rows
…
                         # For now - leave these out                 

# find only dates for unique incidents

comp_dates <- dates[complete.cases(dates), ] # removes 116 rows with at least one NA
unique_incidents_idx <- !duplicated(comp_dates$inc_num)  
u_dates <- comp_dates[unique_incidents_idx, ]

yr_mo <- u_dates %>%
            group_by(yr, mo) %>%
            count()
yr_mo  

## # A tibble: 43 x 3
## # Groups:   yr, mo [43]
##    yr    mo        n
##    <fct> <fct> <int>
##  1 2016  12      743
##  2 2017  1      1070
##  3 2017  2       945
##  4 2017  3      1057
##  5 2017  4      1023
##  6 2017  5      1052
##  7 2017  6       899
##  8 2017  7      1031
##  9 2017  8       941
## 10 2017  9       925
## #  with 33 more rows
…
