Full Fairfax Profiling
…
## # A tibble: 26 x 6
##    PARCEL_ID      NUM_UNITS HOUSING_TYPE           YEAR_BUILT LONGITUDE LATITUDE
##    <chr>              <dbl> <chr>                       <dbl>     <dbl>    <dbl>
##  1 0202 01  0028          1 Single Family Detached       1722     -77.2     39.0
##  2 0272 04      A         1 Single Family Detached       1760     -77.3     38.9
##  3 0673 01  0024A         1 Single Family Detached       1750     -77.4     38.8
##  4 0701 16  0285          1 Single Family Detached       1790     -77.2     38.8
##  5 0133 01  0020Z         1 Single Family Detached       1740     -77.3     39.0
##  6 0922 22      C         1 Single Family Detached       1785     -77.1     38.8
##  7 0952 09  0002          1 Single Family Detached       1793     -77.3     38.7
##  8 0083 12      A         1 Single Family Detached       1791     -77.3     39.0
##  9 0201 01  0013          2 Single Family Detached       1730     -77.2     39.0
## 10 0914 07  0007A         1 Single Family Detached       1766     -77.1     38.8
## #  with 16 more rows
…
